{
  "root": "/",
  "restRegistrations": "/registrations",
    "restDb":"/users",
  "urlEth":"http://127.0.0.1",
  "portBlockchain":":3000",
  "pwdAccountEth":"ciao",
  "databaseUrl":"iir-mysql",
  "databaseUser":"root",
  "databasePw":"password",
  "databaseName":"CertificatedUser",
  "serverPort":"10010",
  "loggerLevel": "DEBUG"
}
